Getting GTFS Data and Mapping with gtfsr • rOpenSci: gtfsr
…
# OR, without piping
# sapply(validate_list_attr, '[[', 'all_req_files')
# sapply(validate_list_attr, '[[', 'all_req_fields_in_req_files')
# sapply(validate_list_attr, '[[', 'all_req_fields_in_opt_files')

We can get more detail about the problematic optional files by extracting the element problem_opt_fields.

# extract the `problem_opt_files` from the validation list
validate_list_attr[[3]]$problem_opt_files
#> # A tibble: 26 x 6
#>    file       file_spec file_provided_status field                 field_spec
#>    <chr>      <chr>     <chr>                <chr>                 <chr>     
#>  1 agency     req       yes                  agency_fare_url       opt       
#>  2 agency     req       yes                  agency_email          opt       
#>  3 stops      req       yes                  platform_code         opt       
#>  4 stops      req       yes                  zone_id               opt       
#>  5 stops      req       yes                  stop_url              opt       
#>  6 stops      req       yes                  parent_station        opt       
#>  7 trips      req       yes                  trip_headsign         opt       
#>  8 trips      req       yes                  wheelchair_accessible opt       
#>  9 trips      req       yes                  bikes_allowed         opt       
#> 10 stop_times req       yes                  stop_headsign         opt       
#>    field_provided_status
#>    <chr>                
#>  1 empty                
#>  2 no                   
#>  3 empty                
#>  4 empty                
#>  5 empty                
#>  6 empty                
#>  7 empty                
#>  8 empty                
#>  9 empty                
#> 10 empty                
#> # … with 16 more rows
…
